{
    "menu":[
        {
            "url": "/about",
            "description": "About Me"
        },
        {
            "url": "/projects",
            "description": "Projects"
        },
        {
            "url": "/get-in-touch",
            "description": "Get in touch"
        },
        {
            "url": "/blog",
            "description": "Blog"
        }
        
    ]
}